<?xml version="1.0" encoding="utf-8"?>
<!-- Generator: Adobe Illustrator 22.0.1, SVG Export Plug-In . SVG Version: 6.00 Build 0)  -->
<svg version="1.1" id="Layer_1" xmlns="http://www.w3.org/2000/svg" xmlns:xlink="http://www.w3.org/1999/xlink" x="0px" y="0px"
	 viewBox="0 0 24.2 22.1" style="enable-background:new 0 0 24.2 22.1;" xml:space="preserve">
<style type="text/css">
	.st0{fill:#FFFFFF;}
</style>
<g transform="translate(0)">
	<g transform="translate(0 0)">
		<path class="st0" d="M12.1,22.1c-3.8,0-7.5,0-11.3,0c-0.6,0-1-0.4-0.8-0.9c0.1-0.3,0.3-0.5,0.6-0.5c0.3,0,0.6,0,0.9,0
			c0.2,0,0.4-0.1,0.5-0.3c1.4-2.3,2.8-4.5,4.2-6.7l0.3-0.4c0.2-0.4,0.6-0.5,0.9-0.4c0.1,0,0.2,0.1,0.2,0.1c0.8,0.6,1.7,1.2,2.5,1.8
			c0.5,0.4,0.5,0.4,0.8-0.2c1.3-2.1,2.6-4.2,3.9-6.3C15,8.2,15.1,8,15.1,7.8c0-2.3,0-4.6,0-6.9C15.1,0.2,15.3,0,16,0h5.3
			c0.7,0,0.9,0.2,0.9,0.9c0,1,0,2,0,3c0,0.6-0.2,0.9-0.9,0.9c-0.8,0-1.5,0-2.3,0c-0.7,0-1.5,0-2.2,0c-0.3,0-0.3,0.1-0.3,0.3
			c0,0.9,0,1.9,0,2.8c0,0.2,0,0.3,0.1,0.5c1.5,3.1,2.9,6.3,4.4,9.4c0.4,0.9,0.8,1.8,1.2,2.6c0.1,0.2,0.2,0.3,0.4,0.3
			c0.3,0,0.7,0,1,0c0.4,0,0.6,0.3,0.6,0.7c0,0.4-0.3,0.7-0.7,0.7c-0.1,0-0.2,0-0.3,0L12.1,22.1z M12.2,20.6L12.2,20.6h8.3
			c0.3,0,0.3,0,0.2-0.3c-1.6-3.4-3.2-6.8-4.8-10.3c0-0.1,0-0.2-0.2-0.2c-0.1,0-0.1,0.1-0.2,0.2c-1.3,2.1-2.6,4.2-3.9,6.3
			c-0.1,0.4-0.6,0.6-1,0.5c-0.1,0-0.2-0.1-0.3-0.2c-0.9-0.6-1.8-1.2-2.6-1.9c-0.3-0.2-0.3-0.2-0.5,0.1c-1.1,1.8-2.3,3.7-3.4,5.5
			c-0.1,0.1-0.2,0.2-0.1,0.3c0.1,0.1,0.2,0,0.3,0C6.7,20.6,9.4,20.6,12.2,20.6L12.2,20.6z M18.6,3.4L18.6,3.4c0.6,0,1.3,0,1.9,0
			c0.2,0,0.3,0,0.3-0.2c0-0.5,0-1,0-1.5c0-0.2-0.1-0.2-0.2-0.2c-1.3,0-2.6,0-3.9,0c-0.2,0-0.2,0.1-0.2,0.3c0,0.5,0,0.9,0,1.4
			c0,0.2,0.1,0.3,0.3,0.3C17.4,3.3,18,3.4,18.6,3.4L18.6,3.4z"/>
	</g>
</g>
</svg>
